[
  {
      "model": "main.todolist",
      "pk": 1,
      "fields": {
          "title": "Buy Milk",
          "content": "Go and buy some fresh milk",
          "created": "2019-03-01",
          "due_date": "2019-10-02"
      }
  },
  {
      "model": "main.todolist",
      "pk": 2,
      "fields": {
          "title": "Make exercises",
          "content": "Make physical exercises",
          "created": "2019-03-01",
          "due_date": "2019-10-02"
      }
  }
]
